%YAML 1.1
%TAG !u! tag:unity3d.com,2011:
--- !u!114 &11400000
MonoBehaviour:
  m_ObjectHideFlags: 0
  m_CorrespondingSourceObject: {fileID: 0}
  m_PrefabInstance: {fileID: 0}
  m_PrefabAsset: {fileID: 0}
  m_GameObject: {fileID: 0}
  m_Enabled: 1
  m_EditorHideFlags: 0
  m_Script: {fileID: 11500000, guid: 1263cf3f60a1e214a82ddeacb125de74, type: 3}
  m_Name: Interference
  m_EditorClassIdentifier: 
  interferenceTex: {fileID: 2800000, guid: ae24e77d6ee51a741a4d8a887c139104, type: 3}
  interferenceShader: {fileID: 4800000, guid: 07e3de5a675d9ed45982feaf3b92f117, type: 3}
  speed: 0.4
